…
\#left\_join

We see that `happy_2017` does not have a “Region” variable. We can
create a “Region” table from the `happy_2016` data and use `left_join`
to pull in the “Region” in the 2017 data:

``` r
region = happy_2016 %>% 
  select(Country,Region)

(happy_2017_with_region = happy_2017 %>% 
  left_join(region,by="Country"))
```

    ## # A tibble: 155 x 13
    ##    Country `Happiness Rank` `Happiness Scor~ `Upper Confiden~
    ##    <chr>              <int>            <dbl>            <dbl>
    ##  1 Norway                 1             7.54             7.59
    ##  2 Denmark                2             7.52             7.58
    ##  3 Iceland                3             7.50             7.62
    ##  4 Switze~                4             7.49             7.56
    ##  5 Finland                5             7.47             7.53
    ##  6 Nether~                6             7.38             7.43
    ##  7 Canada                 7             7.32             7.38
    ##  8 New Ze~                8             7.31             7.38
    ##  9 Sweden                 9             7.28             7.34
    ## 10 Austra~               10             7.28             7.36
    ## # ... with 145 more rows, and 9 more variables: `Lower Confidence
    ## #   Interval` <dbl>, `Economy (GDP per Capita)` <dbl>, Family <dbl>,
    ## #   `Health (Life Expectancy)` <dbl>, Freedom <dbl>, Generosity <dbl>,
    ## #   `Trust (Government Corruption)` <dbl>, `Dystopia Residual` <dbl>,
    ## #   Region <chr>

## inner\_join

We can try to use `inner_join` on the same two tables but this will give
a different result:

``` r
happy_2017 %>% 
  inner_join(region,by="Country")
```

    ## # A tibble: 150 x 13
    ##    Country `Happiness Rank` `Happiness Scor~ `Upper Confiden~
    ##    <chr>              <int>            <dbl>            <dbl>
    ##  1 Norway                 1             7.54             7.59
    ##  2 Denmark                2             7.52             7.58
    ##  3 Iceland                3             7.50             7.62
    ##  4 Switze~                4             7.49             7.56
    ##  5 Finland                5             7.47             7.53
    ##  6 Nether~                6             7.38             7.43
    ##  7 Canada                 7             7.32             7.38
    ##  8 New Ze~                8             7.31             7.38
    ##  9 Sweden                 9             7.28             7.34
    ## 10 Austra~               10             7.28             7.36
    ## # ... with 140 more rows, and 9 more variables: `Lower Confidence
    ## #   Interval` <dbl>, `Economy (GDP per Capita)` <dbl>, Family <dbl>,
    ## #   `Health (Life Expectancy)` <dbl>, Freedom <dbl>, Generosity <dbl>,
    ## #   `Trust (Government Corruption)` <dbl>, `Dystopia Residual` <dbl>,
    ## #   Region <chr>
…
## semi\_join

`semi_join` is similar to `left_join`, but where `left_join(x,y)` will
return a row from `x` for each match in `y`, `semi_join(x,y)` will only
return one row of `x`. `semi_join` also filters out rows in `x` where
there is no match in `y`

``` r
happy_2017 %>% 
  semi_join(region,by="Country")
```

    ## # A tibble: 152 x 12
    ##    Country `Happiness Rank` `Happiness Scor~ `Upper Confiden~
    ##    <chr>              <int>            <dbl>            <dbl>
    ##  1 Norway                 1             7.54             7.59
    ##  2 Denmark                2             7.52             7.58
    ##  3 Iceland                3             7.50             7.62
    ##  4 Switze~                4             7.49             7.56
    ##  5 Finland                5             7.47             7.53
    ##  6 Nether~                6             7.38             7.43
    ##  7 Canada                 7             7.32             7.38
    ##  8 New Ze~                8             7.31             7.38
    ##  9 Sweden                 9             7.28             7.34
    ## 10 Austra~               10             7.28             7.36
    ## # ... with 142 more rows, and 8 more variables: `Lower Confidence
    ## #   Interval` <dbl>, `Economy (GDP per Capita)` <dbl>, Family <dbl>,
    ## #   `Health (Life Expectancy)` <dbl>, Freedom <dbl>, Generosity <dbl>,
    ## #   `Trust (Government Corruption)` <dbl>, `Dystopia Residual` <dbl>
…
## full\_join

If we want to keep all the countries in both datasets, we would use
`full_join`:

``` r
full_join(happy_2017,region)
```

    ## Joining, by = "Country"

    ## # A tibble: 160 x 13
    ##    Country `Happiness Rank` `Happiness Scor~ `Upper Confiden~
    ##    <chr>              <int>            <dbl>            <dbl>
    ##  1 Norway                 1             7.54             7.59
    ##  2 Denmark                2             7.52             7.58
    ##  3 Iceland                3             7.50             7.62
    ##  4 Switze~                4             7.49             7.56
    ##  5 Finland                5             7.47             7.53
    ##  6 Nether~                6             7.38             7.43
    ##  7 Canada                 7             7.32             7.38
    ##  8 New Ze~                8             7.31             7.38
    ##  9 Sweden                 9             7.28             7.34
    ## 10 Austra~               10             7.28             7.36
    ## # ... with 150 more rows, and 9 more variables: `Lower Confidence
    ## #   Interval` <dbl>, `Economy (GDP per Capita)` <dbl>, Family <dbl>,
    ## #   `Health (Life Expectancy)` <dbl>, Freedom <dbl>, Generosity <dbl>,
    ## #   `Trust (Government Corruption)` <dbl>, `Dystopia Residual` <dbl>,
    ## #   Region <chr>
…
## spread

Spread takes values from a column and converts it into multiple columns.

``` r
happysubset = happysubset %>% 
  left_join(region,by="Country")

wide_happysubset = happysubset %>% 
  spread(key = 'year', value = `Happiness Rank`)
wide_happysubset
```

    ## # A tibble: 160 x 4
    ##    Country     Region                          `2016` `2017`
    ##    <chr>       <chr>                            <int>  <int>
    ##  1 Afghanistan Southern Asia                      154    141
    ##  2 Albania     Central and Eastern Europe         109    109
    ##  3 Algeria     Middle East and Northern Africa     38     53
    ##  4 Angola      Sub-Saharan Africa                 141    140
    ##  5 Argentina   Latin America and Caribbean         26     24
    ##  6 Armenia     Central and Eastern Europe         121    121
    ##  7 Australia   Australia and New Zealand            9     10
    ##  8 Austria     Western Europe                      12     13
    ##  9 Azerbaijan  Central and Eastern Europe          81     85
    ## 10 Bahrain     Middle East and Northern Africa     42     41
    ## # ... with 150 more rows

## gather

Given a data in a wide form, we would like to put it in a tidy form,
where each column represents a variable and each row contains the value
of the variable. We use the `wide_happysubset` defined above to
illustrate this function:

``` r
wide_happysubset %>% 
  gather(key = 'Year',value = `Happiness Rank`,3:4)
```

    ## # A tibble: 320 x 4
    ##    Country     Region                          Year  `Happiness Rank`
    ##    <chr>       <chr>                           <chr>            <int>
    ##  1 Afghanistan Southern Asia                   2016               154
    ##  2 Albania     Central and Eastern Europe      2016               109
    ##  3 Algeria     Middle East and Northern Africa 2016                38
    ##  4 Angola      Sub-Saharan Africa              2016               141
    ##  5 Argentina   Latin America and Caribbean     2016                26
    ##  6 Armenia     Central and Eastern Europe      2016               121
    ##  7 Australia   Australia and New Zealand       2016                 9
    ##  8 Austria     Western Europe                  2016                12
    ##  9 Azerbaijan  Central and Eastern Europe      2016                81
    ## 10 Bahrain     Middle East and Northern Africa 2016                42
    ## # ... with 310 more rows
